…
첫번째 `filter()`를 사용해 보겠습니다.

```r
filter(flights, month == 1, day == 1)
#> # A tibble: 842 × 19
#>    year month   day dep_time sched_dep_time dep_delay arr_time
#>   <int> <int> <int>    <int>          <int>     <dbl>    <int>
#> 1  2013     1     1      517            515         2      830
#> 2  2013     1     1      533            529         4      850
#> 3  2013     1     1      542            540         2      923
#> 4  2013     1     1      544            545        -1     1004
#> 5  2013     1     1      554            600        -6      812
#> 6  2013     1     1      554            558        -4      740
#> # ... with 836 more rows, and 12 more variables: sched_arr_time <int>,
#> #   arr_delay <dbl>, carrier <chr>, flight <int>, tailnum <chr>,
#> #   origin <chr>, dest <chr>, air_time <dbl>, distance <dbl>, hour <dbl>,
#> #   minute <dbl>, time_hour <dttm>
jan1 <- filter(flights, month == 1, day == 1)
(dec25 <- filter(flights, month == 12, day == 25))
#> # A tibble: 719 × 19
#>    year month   day dep_time sched_dep_time dep_delay arr_time
#>   <int> <int> <int>    <int>          <int>     <dbl>    <int>
#> 1  2013    12    25      456            500        -4      649
#> 2  2013    12    25      524            515         9      805
#> 3  2013    12    25      542            540         2      832
#> 4  2013    12    25      546            550        -4     1022
#> 5  2013    12    25      556            600        -4      730
#> 6  2013    12    25      557            600        -3      743
#> # ... with 713 more rows, and 12 more variables: sched_arr_time <int>,
#> #   arr_delay <dbl>, carrier <chr>, flight <int>, tailnum <chr>,
#> #   origin <chr>, dest <chr>, air_time <dbl>, distance <dbl>, hour <dbl>,
#> #   minute <dbl>, time_hour <dttm>
```
…
`mutate()`가 각 행에 대한 계산 결과를 하나의 컬럼으로 만들어 주는 것이라면 `summarise()`는 일정 조건(대부분 `group_by()`를 이용한 그룹화)에 해당하는 계산을 수행해줍니다.

```r
summarise(flights, delay = mean(dep_delay, na.rm = TRUE))
#> # A tibble: 1 × 1
#>   delay
#>   <dbl>
#> 1  12.6

by_day <- group_by(flights, year, month, day)
summarise(by_day, delay = mean(dep_delay, na.rm = TRUE))
#> Source: local data frame [365 x 4]
#> Groups: year, month [?]
#> 
#>    year month   day delay
#>   <int> <int> <int> <dbl>
#> 1  2013     1     1 11.55
#> 2  2013     1     2 13.86
#> 3  2013     1     3 10.99
#> 4  2013     1     4  8.95
#> 5  2013     1     5  5.73
#> 6  2013     1     6  7.15
#> # ... with 359 more rows

daily <- group_by(flights, year, month, day)
(per_day   <- summarise(daily, flights = n()))
#> Source: local data frame [365 x 4]
#> Groups: year, month [?]
#> 
#>    year month   day flights
#>   <int> <int> <int>   <int>
#> 1  2013     1     1     842
#> 2  2013     1     2     943
#> 3  2013     1     3     914
#> 4  2013     1     4     915
#> 5  2013     1     5     720
#> 6  2013     1     6     832
#> # ... with 359 more rows
(per_month <- summarise(per_day, flights = sum(flights)))
#> Source: local data frame [12 x 3]
#> Groups: year [?]
#> 
#>    year month flights
#>   <int> <int>   <int>
#> 1  2013     1   27004
#> 2  2013     2   24951
#> 3  2013     3   28834
#> 4  2013     4   28330
#> 5  2013     5   28796
#> 6  2013     6   28243
#> # ... with 6 more rows
…
`group_by()`를 `mutate()`, `filter()`와도 사용할 수 있다고 했습니다.

```r
flights_sml %>% 
  group_by(year, month, day) %>%
  filter(rank(desc(arr_delay)) < 10)
#> Source: local data frame [3,306 x 7]
#> Groups: year, month, day [365]
#> 
#>    year month   day dep_delay arr_delay distance air_time
#>   <int> <int> <int>     <dbl>     <dbl>    <dbl>    <dbl>
#> 1  2013     1     1       853       851      184       41
#> 2  2013     1     1       290       338     1134      213
#> 3  2013     1     1       260       263      266       46
#> 4  2013     1     1       157       174      213       60
#> 5  2013     1     1       216       222      708      121
#> 6  2013     1     1       255       250      589      115
#> # ... with 3,300 more rows
…
우선 내장된 데이터를 소개하겠습니다.

```r
table1
#> # A tibble: 6 × 4
#>       country  year  cases population
#>         <chr> <int>  <int>      <int>
#> 1 Afghanistan  1999    745   19987071
#> 2 Afghanistan  2000   2666   20595360
#> 3      Brazil  1999  37737  172006362
#> 4      Brazil  2000  80488  174504898
#> 5       China  1999 212258 1272915272
#> 6       China  2000 213766 1280428583
table2
#> # A tibble: 12 × 4
#>       country  year       type     count
#>         <chr> <int>      <chr>     <int>
#> 1 Afghanistan  1999      cases       745
#> 2 Afghanistan  1999 population  19987071
#> 3 Afghanistan  2000      cases      2666
#> 4 Afghanistan  2000 population  20595360
#> 5      Brazil  1999      cases     37737
#> 6      Brazil  1999 population 172006362
#> # ... with 6 more rows
…
이번엔 반대과정인 `spread()`를 보겠습니다.

```r
table2
#> # A tibble: 12 × 4
#>       country  year       type     count
#>         <chr> <int>      <chr>     <int>
#> 1 Afghanistan  1999      cases       745
#> 2 Afghanistan  1999 population  19987071
#> 3 Afghanistan  2000      cases      2666
#> 4 Afghanistan  2000 population  20595360
#> 5      Brazil  1999      cases     37737
#> 6      Brazil  1999 population 172006362
#> # ... with 6 more rows
…
### dplyr과 join {#dplyr&join}

`dplyr`에는 `join()` 기능도 있습니다. 데이터를 먼저 소개하겠습니다.

```r
airlines
#> # A tibble: 16 × 2
#>   carrier                     name
#>     <chr>                    <chr>
#> 1      9E        Endeavor Air Inc.
#> 2      AA   American Airlines Inc.
#> 3      AS     Alaska Airlines Inc.
#> 4      B6          JetBlue Airways
#> 5      DL     Delta Air Lines Inc.
#> 6      EV ExpressJet Airlines Inc.
#> # ... with 10 more rows
airports
#> # A tibble: 1,458 × 8
#>     faa                           name   lat   lon   alt    tz   dst
#>   <chr>                          <chr> <dbl> <dbl> <int> <dbl> <chr>
#> 1   04G              Lansdowne Airport  41.1 -80.6  1044    -5     A
#> 2   06A  Moton Field Municipal Airport  32.5 -85.7   264    -6     A
#> 3   06C            Schaumburg Regional  42.0 -88.1   801    -6     A
#> 4   06N                Randall Airport  41.4 -74.4   523    -5     A
#> 5   09J          Jekyll Island Airport  31.1 -81.4    11    -5     A
#> 6   0A9 Elizabethton Municipal Airport  36.4 -82.2  1593    -5     A
#> # ... with 1,452 more rows, and 1 more variables: tzone <chr>
planes
#> # A tibble: 3,322 × 9
#>   tailnum  year                    type     manufacturer     model engines
#>     <chr> <int>                   <chr>            <chr>     <chr>   <int>
#> 1  N10156  2004 Fixed wing multi engine          EMBRAER EMB-145XR       2
#> 2  N102UW  1998 Fixed wing multi engine AIRBUS INDUSTRIE  A320-214       2
#> 3  N103US  1999 Fixed wing multi engine AIRBUS INDUSTRIE  A320-214       2
#> 4  N104UW  1999 Fixed wing multi engine AIRBUS INDUSTRIE  A320-214       2
#> 5  N10575  2002 Fixed wing multi engine          EMBRAER EMB-145LR       2
#> 6  N105UW  1999 Fixed wing multi engine AIRBUS INDUSTRIE  A320-214       2
#> # ... with 3,316 more rows, and 3 more variables: seats <int>,
#> #   speed <int>, engine <chr>
…
